net\antidot\semantic\rdf\rdb2rdf\r2rml\core\R2RMLVocabulary$R2RMLTerm.class
net\antidot\semantic\rdf\rdb2rdf\r2rml\exception\InvalidR2RMLStructureException.class
net\antidot\semantic\rdf\rdb2rdf\r2rml\model\PredicateMap.class
net\antidot\sql\model\db\ForeignKey.class
net\antidot\semantic\xmls\xsd\XSDLexicalTransformation$1.class
net\antidot\sql\model\db\Row.class
net\antidot\semantic\rdf\rdb2rdf\r2rml\model\TermMap$TermMapType.class
net\antidot\semantic\rdf\rdb2rdf\r2rml\core\R2RMLEngine$1.class
net\antidot\semantic\xmls\xsd\XSDLexicalForm$1.class
net\antidot\sql\model\db\Header.class
net\antidot\semantic\rdf\rdb2rdf\r2rml\model\ObjectMap.class
net\antidot\semantic\rdf\rdb2rdf\r2rml\model\TermType.class
net\antidot\semantic\rdf\rdb2rdf\commons\SpecificSQLToXMLS.class
net\antidot\sql\model\type\SQLSpecificType.class
net\antidot\semantic\xmls\xsd\XSDType.class
net\antidot\semantic\rdf\rdb2rdf\r2rml\model\LogicalTable.class
net\antidot\sql\model\core\SQLConnector.class
net\antidot\semantic\rdf\rdb2rdf\r2rml\model\GraphMap.class
net\antidot\semantic\rdf\rdb2rdf\r2rml\model\TriplesMap.class
net\antidot\sql\model\core\SQLConnector$1.class
net\antidot\semantic\rdf\rdb2rdf\r2rml\model\StdSubjectMap.class
net\antidot\semantic\rdf\rdb2rdf\r2rml\model\StdTriplesMap.class
net\antidot\semantic\rdf\rdb2rdf\r2rml\model\StdGraphMap.class
net\antidot\sql\model\db\Body.class
net\antidot\semantic\rdf\rdb2rdf\r2rml\model\R2RMLView$SQLVersion.class
net\antidot\semantic\rdf\rdb2rdf\r2rml\core\R2RMLEngine.class
net\antidot\semantic\rdf\rdb2rdf\r2rml\model\ReferencingObjectMap.class
net\antidot\semantic\rdf\rdb2rdf\r2rml\model\SubjectMap.class
net\antidot\semantic\rdf\rdb2rdf\r2rml\model\JoinCondition.class
net\antidot\semantic\rdf\rdb2rdf\dm\core\DirectMapper.class
net\antidot\semantic\xmls\xsd\XSDLexicalTransformation$Transformation.class
net\antidot\semantic\rdf\model\impl\sesame\SemiStatement.class
net\antidot\semantic\rdf\rdb2rdf\commons\DateConverter$1.class
net\antidot\semantic\rdf\rdb2rdf\r2rml\core\R2RMLProcessor.class
net\antidot\semantic\rdf\rdb2rdf\r2rml\model\StdObjectMap.class
net\antidot\semantic\rdf\rdb2rdf\r2rml\model\AbstractTermMap.class
net\antidot\semantic\rdf\rdb2rdf\r2rml\model\TermMap.class
net\antidot\semantic\rdf\model\impl\sesame\SesameDataSet.class
net\antidot\semantic\rdf\rdb2rdf\r2rml\model\StdJoinCondition.class
net\antidot\semantic\rdf\rdb2rdf\main\Db2triples.class
net\antidot\semantic\rdf\rdb2rdf\r2rml\model\StdR2RMLView.class
net\antidot\semantic\xmls\xsd\XSDLexicalTransformation.class
net\antidot\semantic\rdf\rdb2rdf\dm\core\DirectMapper$1.class
net\antidot\semantic\rdf\rdb2rdf\r2rml\core\R2RMLVocabulary.class
net\antidot\semantic\rdf\rdb2rdf\r2rml\model\StdPredicateObjectMap.class
net\antidot\sql\model\db\StdTable.class
net\antidot\semantic\rdf\rdb2rdf\commons\SQLToXMLS.class
net\antidot\sql\model\db\CandidateKey$KeyType.class
net\antidot\sql\model\tools\SQLToolkit.class
net\antidot\sql\model\db\StdBody.class
net\antidot\sql\model\db\Table.class
net\antidot\semantic\rdf\rdb2rdf\dm\core\DirectMappingEngineWD20110324.class
net\antidot\semantic\rdf\rdb2rdf\r2rml\model\PredicateObjectMap.class
net\antidot\semantic\rdf\rdb2rdf\r2rml\tools\R2RMLToolkit.class
net\antidot\semantic\rdf\model\tools\RDFDataValidator.class
net\antidot\semantic\rdf\rdb2rdf\r2rml\model\R2RMLMapping.class
net\antidot\semantic\xmls\xsd\XSDDataConverter.class
net\antidot\semantic\rdf\rdb2rdf\r2rml\model\SQLBaseTableOrView.class
net\antidot\sql\model\core\DriverType.class
net\antidot\sql\model\tools\SQLDataValidator.class
net\antidot\semantic\rdf\rdb2rdf\commons\DateConverter.class
net\antidot\semantic\rdf\rdb2rdf\dm\core\DirectMappingEngine$Version.class
net\antidot\sql\model\db\Key.class
net\antidot\sql\model\db\StdHeader.class
net\antidot\semantic\rdf\rdb2rdf\r2rml\model\R2RMLView.class
net\antidot\semantic\rdf\rdb2rdf\r2rml\model\AbstractTermMap$1.class
net\antidot\sql\model\db\ColumnIdentifierImpl.class
net\antidot\sql\model\type\SQLType.class
net\antidot\semantic\rdf\rdb2rdf\dm\core\DirectMappingEngine.class
net\antidot\semantic\xmls\xsd\XSDLexicalForm.class
net\antidot\sql\model\db\ColumnIdentifier.class
net\antidot\semantic\rdf\rdb2rdf\dm\core\TupleExtractor.class
net\antidot\semantic\rdf\rdb2rdf\dm\core\DirectMappingEngineWD20120529.class
net\antidot\semantic\rdf\rdb2rdf\r2rml\exception\InvalidR2RMLSyntaxException.class
net\antidot\semantic\rdf\rdb2rdf\r2rml\exception\R2RMLDataError.class
net\antidot\sql\model\db\CandidateKey.class
net\antidot\sql\model\db\Tuple.class
net\antidot\semantic\rdf\rdb2rdf\commons\RDFPrefixes.class
net\antidot\semantic\rdf\rdb2rdf\r2rml\model\StdPredicateMap.class
net\antidot\semantic\rdf\rdb2rdf\r2rml\model\StdReferencingObjectMap.class
net\antidot\semantic\rdf\rdb2rdf\r2rml\core\R2RMLMappingFactory.class
net\antidot\semantic\rdf\rdb2rdf\r2rml\model\StdSQLBaseTableOrView.class
